{
    "KPlugin": {
        "Authors": [
            {
                "Email": "plasma-devel@kde.org",
                "Name": "The Plasma Team",
                "Name[ar]": "فريق بلازما",
                "Name[az]": "Plasma komandası",
                "Name[ca@valencia]": "L'equip de Plasma",
                "Name[ca]": "L'equip del Plasma",
                "Name[cs]": "Team Plasma",
                "Name[da]": "Plasma-udviklingsholdet",
                "Name[de]": "Das Plasma-Team",
                "Name[en_GB]": "The Plasma Team",
                "Name[es]": "El equipo de Plasma",
                "Name[eu]": "Plasmaren taldea",
                "Name[fi]": "Plasma-työryhmä",
                "Name[fr]": "L'équipe de Plasma",
                "Name[hu]": "A Plasma fejlesztői",
                "Name[ia]": "Le equipa de Plasma",
                "Name[id]": "Tim Plasma",
                "Name[it]": "La squadra di Plasma",
                "Name[ka]": "Plasma-ის გუნდი",
                "Name[ko]": "Plasma 팀",
                "Name[lt]": "Plasma komanda",
                "Name[nl]": "Het team van Plasma",
                "Name[nn]": "Utviklingslaget for Plasma",
                "Name[pa]": "ਪਲਾਜ਼ਮਾ ਟੀਮ",
                "Name[pl]": "Zespół Plazmy",
                "Name[pt]": "A Equipa do Plasma",
                "Name[pt_BR]": "A equipe do Plasma",
                "Name[ro]": "Echipa Plasma",
                "Name[ru]": "Команда разработчиков Plasma",
                "Name[sk]": "Tím Plasma",
                "Name[sl]": "Ekipa Plasme",
                "Name[sv]": "Plasma-gruppen",
                "Name[ta]": "பிளாஸ்மா குழு",
                "Name[tr]": "Plasma Takımı",
                "Name[uk]": "Команда розробників Плазми",
                "Name[vi]": "Đội Plasma",
                "Name[x-test]": "xxThe Plasma Teamxx",
                "Name[zh_CN]": "Plasma 开发团队"
            }
        ],
        "Category": "Windows and Tasks",
        "Description": "Switch between virtual desktops",
        "Description[ar]": "يبدّل بين أسطح المكتب الافتراضية",
        "Description[az]": "Virtual İş Masaları arası keçid",
        "Description[ca@valencia]": "Canvia entre escriptoris virtuals",
        "Description[ca]": "Commuta entre escriptoris virtuals",
        "Description[cs]": "Přepínač mezi virtuálními plochami",
        "Description[da]": "Skift mellem virtuelle skriveborde",
        "Description[de]": "Ermöglicht Ihnen das Wechseln zwischen virtuellen Arbeitsflächen.",
        "Description[en_GB]": "Switch between virtual desktops",
        "Description[es]": "Cambiar entre escritorios virtuales",
        "Description[eu]": "Aldatu alegiazko mahaigain batetik bestera",
        "Description[fi]": "Vaihda virtuaalityöpöytää",
        "Description[fr]": "Basculer d'un bureau virtuel à l'autre",
        "Description[hu]": "Virtuális asztalok közötti váltásra szolgáló elem",
        "Description[ia]": "Commuta  inter scriptorios virtual",
        "Description[id]": "Beralih antar virtual desktop",
        "Description[it]": "Passa tra i desktop virtuali",
        "Description[ka]": "ვირტუალურ სამუშაო მაგიდებს შორის გადარტვა",
        "Description[ko]": "가상 바탕 화면간 전환",
        "Description[lt]": "Perjungti tarp virtualių darbalaukių",
        "Description[nl]": "Schakel tussen virtuele bureaubladen",
        "Description[nn]": "Byter mellom virtuelle skrivebord",
        "Description[pa]": "ਵਰਚੁਅਲ ਡੈਸਕਟਾਪਾਂ ਵਿੱਚ ਸਵਿੱਚ ਕਰੋ",
        "Description[pl]": "Przełącza między pulpitami",
        "Description[pt]": "Mudar de ecrã virtual",
        "Description[pt_BR]": "Alterna entre áreas de trabalho virtuais",
        "Description[ro]": "Schimbă între birouri virtuale",
        "Description[ru]": "Переключение между рабочими столами",
        "Description[sk]": "Prepínanie medzi virtuálnymi plochami",
        "Description[sl]": "Preklopi med navideznimi namizji",
        "Description[sv]": "Byt mellan virtuella skrivbord",
        "Description[ta]": "மெய்நிகர் பணிமேடைகளுக்கு இடையே தாவ உதவும்",
        "Description[tr]": "Sanal masaüstleri arasında gezin",
        "Description[uk]": "Перемкніть віртуальні стільниці",
        "Description[vi]": "Chuyển giữa các bàn làm việc ảo",
        "Description[x-test]": "xxSwitch between virtual desktopsxx",
        "Description[zh_CN]": "切换虚拟桌面",
        "EnabledByDefault": true,
        "Icon": "user-desktop",
        "Id": "org.kde.plasma.pager",
        "License": "GPL-2.0+",
        "Name": "Pager",
        "Name[af]": "Pager",
        "Name[ar]": "الأسطح",
        "Name[ast]": "Paxinador",
        "Name[az]": "İş Masası dəyişəni",
        "Name[be@latin]": "Stały",
        "Name[bg]": "Пейджър",
        "Name[bn]": "পেজার",
        "Name[bn_IN]": "পেজার",
        "Name[bs]": "Pejdžer",
        "Name[ca@valencia]": "Paginador",
        "Name[ca]": "Paginador",
        "Name[cs]": "Přepínač ploch",
        "Name[csb]": "Pager",
        "Name[da]": "Skrivebordsvælger",
        "Name[de]": "Arbeitsflächen-Umschalter",
        "Name[el]": "Πίνακας σελίδων",
        "Name[en_GB]": "Pager",
        "Name[eo]": "Paĝilo",
        "Name[es]": "Paginador",
        "Name[et]": "Peiler",
        "Name[eu]": "Bilagailua",
        "Name[fa]": "پی‌جو",
        "Name[fi]": "Sivutin",
        "Name[fr]": "Gestionnaire de bureaux",
        "Name[fy]": "Semafoan",
        "Name[ga]": "Brabhsálaí Leathanach",
        "Name[gl]": "Paxinador",
        "Name[gu]": "પેજર",
        "Name[he]": "Pager",
        "Name[hi]": "पेजर",
        "Name[hne]": "पेजर",
        "Name[hr]": "Pager",
        "Name[hsb]": "Listowar",
        "Name[hu]": "Asztalváltó",
        "Name[ia]": "Pager",
        "Name[id]": "Pager",
        "Name[is]": "Flettir",
        "Name[it]": "Cambiadesktop",
        "Name[ja]": "ページャ",
        "Name[ka]": "პეიჯერი",
        "Name[kk]": "Ақтарғыш",
        "Name[km]": "Pager",
        "Name[kn]": "ಪುಟವೀಕ್ಷಕ (ಪೇಜರ್)",
        "Name[ko]": "호출기",
        "Name[ku]": "Rûpelker",
        "Name[lt]": "Puslapių perjungiklis",
        "Name[lv]": "Lapotājs",
        "Name[mai]": "पेजर",
        "Name[mk]": "Пејџер",
        "Name[ml]": "പേജര്‍",
        "Name[mr]": "पेजर",
        "Name[nb]": "Skrivebordsbytter",
        "Name[nds]": "Schriefdisch-Översicht",
        "Name[ne]": "पेजर",
        "Name[nl]": "Pager",
        "Name[nn]": "Skrivebords­bytar",
        "Name[oc]": "Recebedor d'apèl",
        "Name[or]": "ପେଜର",
        "Name[pa]": "ਪੇਜ਼ਰ",
        "Name[pl]": "Przełącznik pulpitów",
        "Name[pt]": "Paginador",
        "Name[pt_BR]": "Paginador",
        "Name[ro]": "Paginator",
        "Name[ru]": "Переключение рабочих столов",
        "Name[se]": "Čállinbeavdemolsojeaddj",
        "Name[si]": "පේජරය",
        "Name[sk]": "Prepínač plôch",
        "Name[sl]": "Pozivnik",
        "Name[sr@ijekavian]": "листач",
        "Name[sr@ijekavianlatin]": "listač",
        "Name[sr@latin]": "listač",
        "Name[sr]": "листач",
        "Name[sv]": "Skrivbordsvisning",
        "Name[ta]": "பணிமேடை மாற்றி",
        "Name[te]": "పేజర్",
        "Name[tg]": "Пейҷер",
        "Name[th]": "สลับหน้าพื้นที่ทำงาน",
        "Name[tr]": "Sayfalayıcı",
        "Name[ug]": "چاقىرغۇ",
        "Name[uk]": "Пейджер",
        "Name[vi]": "Tổng quan",
        "Name[wa]": "Pager",
        "Name[x-test]": "xxPagerxx",
        "Name[zh_CN]": "虚拟桌面切换器",
        "Name[zh_TW]": "虛擬桌面管理器",
        "ServiceTypes": [
            "Plasma/Applet"
        ],
        "Version": "4.0",
        "Website": "https://userbase.kde.org/Plasma/Pager"
    },
    "X-Plasma-API": "declarativeappletscript",
    "X-Plasma-MainScript": "ui/main.qml",
    "X-Plasma-Provides": [
        "org.kde.plasma.virtualdesktops"
    ]
}
